{
    "sourceFile": "src/components/Footer.vue",
    "activeCommit": 0,
    "commits": [
        {
            "activePatchIndex": 1,
            "patches": [
                {
                    "date": 1623334361823,
                    "content": "Index: \n===================================================================\n--- \n+++ \n"
                },
                {
                    "date": 1623393545491,
                    "content": "Index: \n===================================================================\n--- \n+++ \n@@ -1,6 +1,6 @@\n <template>\n-  <div class=\"text-muted author position-fixed p-2\">\n+  <div class=\"text-muted author position-fixed p-2 hover_pointer\" title=\"Entreprise technologique\">\n     By Chipdeals Inc.\n   </div>\n </template>\n \n"
                }
            ],
            "date": 1623334361823,
            "name": "Commit-0",
            "content": "<template>\n  <div class=\"text-muted author position-fixed p-2\">\n    By Chipdeals Inc.\n  </div>\n</template>\n\n<script>\n  export default {\n    name: \"Footer\",\n  };\n</script>\n\n<!-- Add \"scoped\" attribute to limit CSS to this component only -->\n<style>\n  .author{\n    right:0px;\n    bottom:0px;\n  }\n</style>\n"
        }
    ]
}