{
    "sourceFile": "src/components/NotificationModal.vue",
    "activeCommit": 0,
    "commits": [
        {
            "activePatchIndex": 2,
            "patches": [
                {
                    "date": 1624532834005,
                    "content": "Index: \n===================================================================\n--- \n+++ \n"
                },
                {
                    "date": 1624532879433,
                    "content": "Index: \n===================================================================\n--- \n+++ \n@@ -2,9 +2,9 @@\n   <b-modal\n     id=\"NotificationModal\"\n     hide-header\n     centered\n-    title=\"CallToAction\"\n+    title=\"Notification\"\n     hide-footer\n   >\n     Cette fonctionnalitée est seulement\n     <span class=\"font-weight-bold\">disponible</span> dans l'<span\n"
                },
                {
                    "date": 1624532975603,
                    "content": "Index: \n===================================================================\n--- \n+++ \n@@ -1,10 +1,10 @@\n <template>\n   <b-modal\n-    id=\"NotificationModal\"\n+    id=\"AlertModal\"\n     hide-header\n     centered\n-    title=\"Notification\"\n+    title=\"Alert\"\n     hide-footer\n   >\n     Cette fonctionnalitée est seulement\n     <span class=\"font-weight-bold\">disponible</span> dans l'<span\n@@ -18,18 +18,18 @@\n       >Rejoins-les!</a\n     >\n     <div\n       class=\"btn btn-default float-right\"\n-      @click=\"$bvModal.hide('NotificationModal')\"\n+      @click=\"$bvModal.hide('AlertModal')\"\n     >\n       Plus tard\n     </div>\n   </b-modal>\n </template>\n \n <script>\n export default {\n-  name: \"NotificationModal\",\n+  name: \"AlertModal\",\n   props: {\n     callToActionLink: String,\n   },\n };\n"
                }
            ],
            "date": 1624532834005,
            "name": "Commit-0",
            "content": "<template>\n  <b-modal\n    id=\"NotificationModal\"\n    hide-header\n    centered\n    title=\"CallToAction\"\n    hide-footer\n  >\n    Cette fonctionnalitée est seulement\n    <span class=\"font-weight-bold\">disponible</span> dans l'<span\n      class=\"font-weight-bold\"\n      >application mobile</span\n    >. Rejoins les <span class=\"font-weight-bold\">200</span> utilisateurs sur la\n    liste d'attente.\n    <br />\n    <br />\n    <a :href=\"callToActionLink\" class=\"btn float-right btn-danger\"\n      >Rejoins-les!</a\n    >\n    <div\n      class=\"btn btn-default float-right\"\n      @click=\"$bvModal.hide('NotificationModal')\"\n    >\n      Plus tard\n    </div>\n  </b-modal>\n</template>\n\n<script>\nexport default {\n  name: \"NotificationModal\",\n  props: {\n    callToActionLink: String,\n  },\n};\n</script>\n<style></style>\n"
        }
    ]
}