[
  {
    "fullName": "John Doe Géraud",
    "role": "3eme année licence",
    "uuid": "GéraudUuid",
    "picture": 1
  },
  {
    "fullName": "John Doe",
    "role": "Sécrétaire",
    "uuid": "secretaireUuid",
    "picture": 1
  },
  {
    "fullName": "John Doe Géraud",
    "role": "3eme année licence",
    "uuid": "GéraudUuid",
    "picture": 1
  },
  {
    "fullName": "John Doe",
    "role": "Sécrétaire",
    "uuid": "secretaireUuid",
    "picture": 1
  },
  {
    "fullName": "John Doe Géraud",
    "role": "3eme année licence",
    "uuid": "GéraudUuid",
    "picture": 1
  },
  {
    "fullName": "John Doe Géraud",
    "role": "3eme année licence",
    "uuid": "GéraudUuid",
    "picture": 1
  },
  {
    "fullName": "John Doe Géraud",
    "role": "3eme année licence",
    "uuid": "GéraudUuid",
    "picture": 1
  },
  {
    "fullName": "John Doe Géraud",
    "role": "3eme année licence",
    "uuid": "GéraudUuid",
    "picture": 1
  },
  {
    "fullName": "John Doe Géraud",
    "role": "3eme année licence",
    "uuid": "GéraudUuid",
    "picture": 1
  },
  {
    "fullName": "John Doe Géraud",
    "role": "3eme année licence",
    "uuid": "GéraudUuid",
    "picture": 1
  }
]
